;0;1;2;3;4;5
mean_fit_time;0.5735857486724854;1.4282835324605305;3.0449273586273193;2.191411336263021;4.9694877465566;7.806200663248698
std_fit_time;0.023703674703761207;0.022533033447780973;0.08988830145628394;0.06273194686646152;0.3671055043726189;0.18688901184451973
mean_score_time;0.028223276138305664;0.030504385630289715;0.03841423988342285;0.03328839937845866;0.03452157974243164;0.03553088506062826
std_score_time;0.004739514808363814;0.0002486505248381125;0.002631044598537047;0.009843260361416585;0.006244887145587205;0.0007669249469454169
param_criterion;gini;gini;gini;entropy;entropy;entropy
param_max_depth;10;25;50;10;25;50
param_random_state;0;0;0;0;0;0
param_splitter;best;best;best;best;best;best
params;{'criterion': 'gini', 'max_depth': 10, 'random_state': 0, 'splitter': 'best'};{'criterion': 'gini', 'max_depth': 25, 'random_state': 0, 'splitter': 'best'};{'criterion': 'gini', 'max_depth': 50, 'random_state': 0, 'splitter': 'best'};{'criterion': 'entropy', 'max_depth': 10, 'random_state': 0, 'splitter': 'best'};{'criterion': 'entropy', 'max_depth': 25, 'random_state': 0, 'splitter': 'best'};{'criterion': 'entropy', 'max_depth': 50, 'random_state': 0, 'splitter': 'best'}
split0_test_score;0.28960081635633245;0.43446567552651016;0.5261452116636482;0.2773889451203117;0.4547009749524198;0.5377198169498363
split1_test_score;0.2897671258879901;0.4361560720888096;0.5340034141189802;0.28480273658251803;0.4642216071465036;0.5453053029604781
split2_test_score;0.2913917849503227;0.43993326913358966;0.5330609416481858;0.28151250399749345;0.4585445621630412;0.5434632939204274
mean_test_score;0.2902530336653683;0.436851050490449;0.5310691442189414;0.28123433997353353;0.45915538669834277;0.5421622274979577
std_test_score;0.0008078640566562236;0.0022855728689784092;0.003503753169681609;0.0030333154191760177;0.003911035111642463;0.0032307221010152575
rank_test_score;5;4;2;6;3;1
split0_train_score;0.29463720722510617;0.4622436935600276;0.5937317991621479;0.2883905443609666;0.5157896620949854;0.679405557626193
split1_train_score;0.29273584997775165;0.45959572238090396;0.5940486463343505;0.28679535496811137;0.5186654320820586;0.6830931711796172
split2_train_score;0.29501909464519527;0.4598834561084361;0.5947161091440746;0.2835982389916518;0.5082235343751011;0.6798873414613669
mean_train_score;0.29413071728268436;0.46057429068312256;0.5941655182135244;0.28626137944024327;0.5142262095173817;0.6807953567557258
std_train_score;0.000998565837984077;0.0011862762883786092;0.0004102526150526732;0.0019925519794913547;0.0044039069701385745;0.0016366616960430133
