;0;1;2;3;4;5;6;7;8
mean_fit_time;16.769943714141846;39.94816700617472;82.40219600995381;17.707600275675457;42.39309517542521;84.83004935582478;16.111626148223877;44.68588360150655;1316.0648752848308
std_fit_time;0.7322047312785046;0.24192418549911632;1.4415772640448488;0.6854015523662605;0.5056388639194054;3.247790352500357;0.040935765716090346;3.1278374223505154;1722.7341833392672
mean_score_time;0.07473198572794597;0.1472336451212565;0.2662959098815918;0.06813645362854004;0.14247981707255045;0.26235779126485187;0.05947295824686686;0.1450354258219401;0.2938900788625081
std_score_time;0.017721421275115296;0.006678747876595752;0.009791005036268292;0.010522674132868483;0.001914392462023921;0.002531604781064265;0.0003265900207873835;0.008489959665811985;0.02614718120450976
param_learning_rate;0.1;0.1;0.1;0.01;0.01;0.01;0.001;0.001;0.001
param_loss;deviance;deviance;deviance;deviance;deviance;deviance;deviance;deviance;deviance
param_n_estimators;10;25;50;10;25;50;10;25;50
param_random_state;0;0;0;0;0;0;0;0;0
params;{'learning_rate': 0.1, 'loss': 'deviance', 'n_estimators': 10, 'random_state': 0};{'learning_rate': 0.1, 'loss': 'deviance', 'n_estimators': 25, 'random_state': 0};{'learning_rate': 0.1, 'loss': 'deviance', 'n_estimators': 50, 'random_state': 0};{'learning_rate': 0.01, 'loss': 'deviance', 'n_estimators': 10, 'random_state': 0};{'learning_rate': 0.01, 'loss': 'deviance', 'n_estimators': 25, 'random_state': 0};{'learning_rate': 0.01, 'loss': 'deviance', 'n_estimators': 50, 'random_state': 0};{'learning_rate': 0.001, 'loss': 'deviance', 'n_estimators': 10, 'random_state': 0};{'learning_rate': 0.001, 'loss': 'deviance', 'n_estimators': 25, 'random_state': 0};{'learning_rate': 0.001, 'loss': 'deviance', 'n_estimators': 50, 'random_state': 0}
split0_test_score;0.5883445690872552;0.6478971143396419;0.6735370142926556;0.35118963779315004;0.4715234187128126;0.5210616718225987;0.025703969359292058;0.025703969359292058;0.025703969359292058
split1_test_score;0.5854363166949449;0.6415167947834874;0.6689181807305449;0.3668720241387557;0.47018094217881035;0.5111217192872965;0.025703969359292058;0.025703969359292058;0.025703969359292058
split2_test_score;0.5763700150422313;0.6384668596058668;0.6723773101270872;0.350936871369859;0.4624051375575335;0.5266574727088231;0.025707407453639884;0.025707407453639884;0.025707407453639884
mean_test_score;0.5833836336081438;0.6426269229096654;0.6716108350500959;0.3563328444339216;0.46803649948305215;0.5196136212729061;0.025705115390741332;0.025705115390741332;0.025705115390741332
std_test_score;0.005099517430465295;0.003929097812337292;0.001961975008566058;0.007453039843100987;0.004019513955958907;0.006424564648776722;1.6207332184713321e-06;1.6207332184713321e-06;1.6207332184713321e-06
rank_test_score;3;2;1;6;5;4;7;7;7
split0_train_score;0.6121050421537554;0.6953538664429997;0.756295276952282;0.35998158936370517;0.4813391385859861;0.5331070004622136;0.025705688320153998;0.025705688320153998;0.025705688320153998
split1_train_score;0.6135866292772697;0.6944989198642926;0.7550007631301443;0.3761549060515252;0.4854369715043718;0.5271683393868702;0.025705688320153998;0.025705688320153998;0.025705688320153998
split2_train_score;0.6096730847724989;0.6926202757049987;0.7540414957300924;0.3648887962154043;0.48117666585235985;0.5454019283587044;0.025703969359292058;0.025703969359292058;0.025703969359292058
mean_train_score;0.6117882520678414;0.6941576873374303;0.7551125119375063;0.3670084305435449;0.48265092531423925;0.5352257560692627;0.02570511533320002;0.02570511533320002;0.02570511533320002
std_train_score;0.0016133246452807628;0.0011417703530811948;0.0009234891431716268;0.00677070554840992;0.001971148460070444;0.007593101504666346;8.103259213813043e-07;8.103259213813043e-07;8.103259213813043e-07
